﻿{
  "$schema": "http://json.schemastore.org/launchsettings.json",
  "iisSettings": {
    "windowsAuthentication": false, 
    "anonymousAuthentication": true, 
    "iisExpress": {
      "applicationUrl": "http://localhost:14981",
      "sslPort": 44352
    }
  },
  "profiles": {
    "Exercise.Api": {
      "commandName": "Project",
      "launchBrowser": false,
      "launchUrl": "api/values",
      "applicationUrl": "http://localhost:5000",
      "environmentVariables": {
        "ASPNETCORE_ENVIRONMENT": "Development"
      }
    }
  }
}